<?xml version="1.0" encoding="UTF-8" standalone="no"?>
<!-- Created with Inkscape (http://www.inkscape.org/) -->

<svg
   xmlns:dc="http://purl.org/dc/elements/1.1/"
   xmlns:cc="http://creativecommons.org/ns#"
   xmlns:rdf="http://www.w3.org/1999/02/22-rdf-syntax-ns#"
   xmlns:svg="http://www.w3.org/2000/svg"
   xmlns="http://www.w3.org/2000/svg"
   xmlns:sodipodi="http://sodipodi.sourceforge.net/DTD/sodipodi-0.dtd"
   xmlns:inkscape="http://www.inkscape.org/namespaces/inkscape"
   width="1600"
   height="1200"
   id="svg2"
   version="1.1"
   inkscape:version="0.48.4 r9939"
   sodipodi:docname="070challenge.svg">
  <defs
     id="defs4" />
  <sodipodi:namedview
     id="base"
     pagecolor="#ffffff"
     bordercolor="#666666"
     borderopacity="1.0"
     inkscape:pageopacity="0.0"
     inkscape:pageshadow="2"
     inkscape:zoom="0.71666667"
     inkscape:cx="467.90698"
     inkscape:cy="600"
     inkscape:document-units="px"
     inkscape:current-layer="layer1"
     showgrid="false"
     inkscape:window-width="1696"
     inkscape:window-height="1007"
     inkscape:window-x="75"
     inkscape:window-y="34"
     inkscape:window-maximized="0" />
  <metadata
     id="metadata7">
    <rdf:RDF>
      <cc:Work
         rdf:about="">
        <dc:format>image/svg+xml</dc:format>
        <dc:type
           rdf:resource="http://purl.org/dc/dcmitype/StillImage" />
        <dc:title />
      </cc:Work>
    </rdf:RDF>
  </metadata>
  <g
     inkscape:label="Layer 1"
     inkscape:groupmode="layer"
     id="layer1"
     transform="translate(0,147.63782)">
    <g
       id="g3091"
       transform="translate(9.5999982,0)">
      <text
         sodipodi:linespacing="125%"
         id="text3258"
         y="49.642181"
         x="185.3"
         style="font-size:96px;font-style:normal;font-variant:normal;font-weight:normal;font-stretch:normal;text-align:start;line-height:125%;letter-spacing:0px;word-spacing:0px;writing-mode:lr-tb;text-anchor:start;fill:#000000;fill-opacity:1;stroke:none;font-family:Courier 10 Pitch;-inkscape-font-specification:Courier 10 Pitch"
         xml:space="preserve"><tspan
           y="49.642181"
           x="185.3"
           id="tspan3260"
           sodipodi:role="line">challenges</tspan></text>
    </g>
    <text
       xml:space="preserve"
       style="font-size:64px;font-style:normal;font-variant:normal;font-weight:normal;font-stretch:normal;text-align:start;line-height:125%;letter-spacing:0px;word-spacing:0px;writing-mode:lr-tb;text-anchor:start;fill:#000000;fill-opacity:1;stroke:none;font-family:Courier 10 Pitch;-inkscape-font-specification:Courier 10 Pitch"
       x="196.436"
       y="260.8273"
       id="text5976"
       sodipodi:linespacing="125%"><tspan
         sodipodi:role="line"
         x="196.436"
         y="260.8273"
         id="tspan9033">collaboration</tspan></text>
    <flowRoot
       xml:space="preserve"
       id="flowRoot5992"
       style="fill:black;stroke:none;stroke-opacity:1;stroke-width:1px;stroke-linejoin:miter;stroke-linecap:butt;fill-opacity:1;font-family:Courier 10 Pitch;font-style:normal;font-weight:normal;font-size:64px;line-height:125%;letter-spacing:0px;word-spacing:0px;-inkscape-font-specification:Courier 10 Pitch;font-stretch:normal;font-variant:normal;text-anchor:start;text-align:start;writing-mode:lr"><flowRegion
         id="flowRegion5994"><rect
           id="rect5996"
           width="498.13953"
           height="266.51163"
           x="440.93024"
           y="650.23254" /></flowRegion><flowPara
         id="flowPara5998" /></flowRoot>    <flowRoot
       xml:space="preserve"
       id="flowRoot6000"
       style="fill:black;stroke:none;stroke-opacity:1;stroke-width:1px;stroke-linejoin:miter;stroke-linecap:butt;fill-opacity:1;font-family:Courier 10 Pitch;font-style:normal;font-weight:normal;font-size:64px;line-height:125%;letter-spacing:0px;word-spacing:0px;-inkscape-font-specification:Courier 10 Pitch;font-stretch:normal;font-variant:normal;text-anchor:start;text-align:start;writing-mode:lr"><flowRegion
         id="flowRegion6002"><rect
           id="rect6004"
           width="933.48834"
           height="459.06976"
           x="439.53488"
           y="640.46515" /></flowRegion><flowPara
         id="flowPara6006" /></flowRoot>    <text
       xml:space="preserve"
       style="font-size:32px;font-style:normal;font-variant:normal;font-weight:normal;font-stretch:normal;text-align:start;line-height:125%;letter-spacing:0px;word-spacing:0px;writing-mode:lr-tb;text-anchor:start;fill:#000000;fill-opacity:1;stroke:none;font-family:Courier 10 Pitch;-inkscape-font-specification:Courier 10 Pitch"
       x="996.27905"
       y="736.7442"
       id="text3087"
       sodipodi:linespacing="125%"
       transform="translate(0,-147.63782)"><tspan
         sodipodi:role="line"
         id="tspan3089"
         x="996.27905"
         y="736.7442" /></text>
    <text
       xml:space="preserve"
       style="font-size:64px;font-style:normal;font-variant:normal;font-weight:normal;font-stretch:normal;text-align:start;line-height:125%;letter-spacing:0px;word-spacing:0px;writing-mode:lr-tb;text-anchor:start;fill:#000000;fill-opacity:1;stroke:none;font-family:Courier 10 Pitch;-inkscape-font-specification:Courier 10 Pitch"
       x="196.116"
       y="616.79626"
       id="text3374"
       sodipodi:linespacing="125%"><tspan
         sodipodi:role="line"
         id="tspan3376"
         x="196.116"
         y="616.79626">really old FORTRAN</tspan></text>
    <text
       sodipodi:linespacing="125%"
       id="text3378"
       y="794.78076"
       x="193.492"
       style="font-size:64px;font-style:normal;font-variant:normal;font-weight:normal;font-stretch:normal;text-align:start;line-height:125%;letter-spacing:0px;word-spacing:0px;writing-mode:lr-tb;text-anchor:start;fill:#000000;fill-opacity:1;stroke:none;font-family:Courier 10 Pitch;-inkscape-font-specification:Courier 10 Pitch"
       xml:space="preserve"><tspan
         y="794.78076"
         x="193.492"
         id="tspan3380"
         sodipodi:role="line">IBM punch card / 9-track magtape</tspan></text>
    <g
       id="g3398">
      <flowRoot
         style="fill:black;stroke:none;stroke-opacity:1;stroke-width:1px;stroke-linejoin:miter;stroke-linecap:butt;fill-opacity:1;font-family:Courier 10 Pitch;font-style:normal;font-weight:normal;font-size:64px;line-height:125%;letter-spacing:0px;word-spacing:0px;-inkscape-font-specification:Courier 10 Pitch;font-stretch:normal;font-variant:normal;text-anchor:start;text-align:start;writing-mode:lr"
         id="flowRoot3390"
         xml:space="preserve"><flowRegion
           id="flowRegion3392"><rect
             y="298.60464"
             x="150.69768"
             height="181.39536"
             width="1240.4651"
             id="rect3394" /></flowRegion><flowPara
           id="flowPara3396" /></flowRoot>    </g>
    <flowRoot
       xml:space="preserve"
       id="flowRoot3408"
       style="fill:black;stroke:none;stroke-opacity:1;stroke-width:1px;stroke-linejoin:miter;stroke-linecap:butt;fill-opacity:1;font-family:Courier 10 Pitch;font-style:normal;font-weight:normal;font-size:64px;line-height:125%;letter-spacing:0px;word-spacing:0px;-inkscape-font-specification:Courier 10 Pitch;font-stretch:normal;font-variant:normal;text-anchor:start;text-align:start;writing-mode:lr"><flowRegion
         id="flowRegion3410"><rect
           id="rect3412"
           width="1338.1395"
           height="846.97675"
           x="140.93024"
           y="258.13953" /></flowRegion><flowPara
         id="flowPara3414" /></flowRoot>    <flowRoot
       xml:space="preserve"
       id="flowRoot8908"
       style="fill:black;stroke:none;stroke-opacity:1;stroke-width:1px;stroke-linejoin:miter;stroke-linecap:butt;fill-opacity:1;font-family:Courier 10 Pitch;font-style:normal;font-weight:normal;font-size:64px;line-height:125%;letter-spacing:0px;word-spacing:0px;-inkscape-font-specification:Courier 10 Pitch;font-stretch:normal;font-variant:normal;text-anchor:start;text-align:start;writing-mode:lr"><flowRegion
         id="flowRegion8910"><rect
           id="rect8912"
           width="759.06976"
           height="168.8372"
           x="720"
           y="361.39536" /></flowRegion><flowPara
         id="flowPara8914" /></flowRoot>    <text
       xml:space="preserve"
       style="font-size:64px;font-style:normal;font-variant:normal;font-weight:normal;font-stretch:normal;text-align:start;line-height:125%;letter-spacing:0px;word-spacing:0px;writing-mode:lr-tb;text-anchor:start;fill:#000000;fill-opacity:1;stroke:none;font-family:Courier 10 Pitch;-inkscape-font-specification:Courier 10 Pitch"
       x="193.23601"
       y="438.8118"
       id="text8916"
       sodipodi:linespacing="125%"><tspan
         sodipodi:role="line"
         id="tspan8918"
         x="193.23601"
         y="438.8118">$$$</tspan></text>
    <flowRoot
       xml:space="preserve"
       id="flowRoot8920"
       style="fill:black;stroke:none;stroke-opacity:1;stroke-width:1px;stroke-linejoin:miter;stroke-linecap:butt;fill-opacity:1;font-family:Courier 10 Pitch;font-style:normal;font-weight:normal;font-size:64px;line-height:125%;letter-spacing:0px;word-spacing:0px;-inkscape-font-specification:Courier 10 Pitch;font-stretch:normal;font-variant:normal;text-anchor:start;text-align:start;writing-mode:lr"><flowRegion
         id="flowRegion8922"><rect
           id="rect8924"
           width="1198.6046"
           height="256.74417"
           x="149.30232"
           y="781.39532" /></flowRegion><flowPara
         id="flowPara8926" /></flowRoot>  </g>
</svg>
